﻿[
    "123456",
    "password",
    "qwerty",
    "12345678",
    "12345",
    "123456789",
    "1234567890",
    "futbol",
    "football",
    "1234",
    "1234567",
    "baseball",
    "beisbol",
    "welcome",
    "abc123",
    "111111",
    "1qaz2wsx",
    "dragon",
    "master",
    "root",
    "monkey",
    "login",
    "princess",
    "qwertyuiop",
    "solo",
    "passw0rd",
    "starwars"
]