[
    "verga",
    "verguilla",
    "verguita",
    "vergon",
    "baboso",
    "babosa",
    "puto",
    "puta",
    "putita",
    "putito",
    "pendejo",
    "pendeja",
    "cerote",
    "cerota",
    "monda",
    "culo",
    "culito",
    "chinga",
    "pusha",
    "pucha",
    "pene",
    "vagina",
    "coño",
    "joto",
    "gay",
    "p-u-t-o",
    "p.u.t.o",
    "imbécil",
    "imbecil",
    "zorra",
    "pinchi",
    "caca",
    "pendej",
    "mierda",
    "cagada",
    "verguin",
    "vergin",
    "pene",
    "sexo",
    "pito",
    "c.a.b.r.o.n.e.s",
    "p.e.n.d.e.jo.s",
    "p.u.ti.t.os"
]
